0:0:0:0:0:0:0:1 - - [09/Sep/2018:19:24:09 +0800] "GET / HTTP/1.1" 200 11488
0:0:0:0:0:0:0:1 - - [09/Sep/2018:19:24:09 +0800] "GET /tomcat.css HTTP/1.1" 200 5931
0:0:0:0:0:0:0:1 - - [09/Sep/2018:19:24:09 +0800] "GET /tomcat.png HTTP/1.1" 200 5103
0:0:0:0:0:0:0:1 - - [09/Sep/2018:19:24:09 +0800] "GET /bg-upper.png HTTP/1.1" 200 3103
0:0:0:0:0:0:0:1 - - [09/Sep/2018:19:24:09 +0800] "GET /bg-button.png HTTP/1.1" 200 713
0:0:0:0:0:0:0:1 - - [09/Sep/2018:19:24:09 +0800] "GET /bg-nav.png HTTP/1.1" 200 1401
0:0:0:0:0:0:0:1 - - [09/Sep/2018:19:24:09 +0800] "GET /asf-logo-wide.svg HTTP/1.1" 200 27530
0:0:0:0:0:0:0:1 - - [09/Sep/2018:19:24:10 +0800] "GET /bg-middle.png HTTP/1.1" 200 1918
0:0:0:0:0:0:0:1 - - [09/Sep/2018:19:24:10 +0800] "GET /favicon.ico HTTP/1.1" 200 21630
0:0:0:0:0:0:0:1 - - [09/Sep/2018:20:10:32 +0800] "GET / HTTP/1.1" 200 11488
0:0:0:0:0:0:0:1 - - [09/Sep/2018:20:10:32 +0800] "GET /tomcat.css HTTP/1.1" 200 5931
0:0:0:0:0:0:0:1 - - [09/Sep/2018:20:10:32 +0800] "GET /favicon.ico HTTP/1.1" 200 21630
0:0:0:0:0:0:0:1 - - [09/Sep/2018:20:10:36 +0800] "GET /docs/ HTTP/1.1" 200 17258
0:0:0:0:0:0:0:1 - - [09/Sep/2018:20:10:36 +0800] "GET /docs/images/tomcat.png HTTP/1.1" 200 5103
0:0:0:0:0:0:0:1 - - [09/Sep/2018:20:10:36 +0800] "GET /docs/images/docs-stylesheet.css HTTP/1.1" 200 6082
0:0:0:0:0:0:0:1 - - [09/Sep/2018:20:10:36 +0800] "GET /docs/images/asf-logo.svg HTTP/1.1" 200 20712
0:0:0:0:0:0:0:1 - - [09/Sep/2018:20:10:36 +0800] "GET /docs/images/fonts/fonts.css HTTP/1.1" 200 1996
0:0:0:0:0:0:0:1 - - [09/Sep/2018:20:10:37 +0800] "GET /docs/images/fonts/OpenSans400.woff HTTP/1.1" 200 21956
0:0:0:0:0:0:0:1 - - [09/Sep/2018:20:10:37 +0800] "GET /docs/images/fonts/OpenSans400italic.woff HTTP/1.1" 200 21092
0:0:0:0:0:0:0:1 - - [09/Sep/2018:20:10:37 +0800] "GET /docs/images/fonts/OpenSans700.woff HTTP/1.1" 200 22748
0:0:0:0:0:0:0:1 - - [09/Sep/2018:20:10:37 +0800] "GET /docs/images/fonts/OpenSans600.woff HTTP/1.1" 200 22604
0:0:0:0:0:0:0:1 - - [09/Sep/2018:20:10:38 +0800] "GET /tomcat.png HTTP/1.1" 200 5103
0:0:0:0:0:0:0:1 - - [09/Sep/2018:20:10:38 +0800] "GET /bg-middle.png HTTP/1.1" 200 1918
0:0:0:0:0:0:0:1 - - [09/Sep/2018:20:10:38 +0800] "GET /bg-upper.png HTTP/1.1" 200 3103
0:0:0:0:0:0:0:1 - - [09/Sep/2018:20:10:38 +0800] "GET /bg-nav.png HTTP/1.1" 200 1401
0:0:0:0:0:0:0:1 - - [09/Sep/2018:20:10:38 +0800] "GET /asf-logo-wide.svg HTTP/1.1" 200 27530
0:0:0:0:0:0:0:1 - - [09/Sep/2018:20:10:38 +0800] "GET /bg-button.png HTTP/1.1" 200 713
0:0:0:0:0:0:0:1 - - [09/Sep/2018:20:10:39 +0800] "GET /manager/status HTTP/1.1" 401 2536
0:0:0:0:0:0:0:1 - - [09/Sep/2018:20:24:43 +0800] "GET / HTTP/1.1" 200 11488
0:0:0:0:0:0:0:1 - - [09/Sep/2018:20:24:43 +0800] "GET /favicon.ico HTTP/1.1" 200 21630
0:0:0:0:0:0:0:1 - - [09/Sep/2018:20:25:31 +0800] "GET /manager/status HTTP/1.1" 401 2536
0:0:0:0:0:0:0:1 - - [09/Sep/2018:20:25:44 +0800] "GET /manager/status HTTP/1.1" 401 2536
0:0:0:0:0:0:0:1 - - [09/Sep/2018:20:28:11 +0800] "GET /manager/html HTTP/1.1" 401 2536
0:0:0:0:0:0:0:1 - tomcatmichael [09/Sep/2018:20:28:22 +0800] "GET /manager/html HTTP/1.1" 403 3503
0:0:0:0:0:0:0:1 - tomcatmichael [09/Sep/2018:20:33:32 +0800] "GET /manager/html HTTP/1.1" 403 3503
0:0:0:0:0:0:0:1 - tomcatmichael [09/Sep/2018:20:33:36 +0800] "GET /manager/html HTTP/1.1" 403 3503
0:0:0:0:0:0:0:1 - tomcatmichael [09/Sep/2018:20:33:40 +0800] "GET /manager/status HTTP/1.1" 403 3503
0:0:0:0:0:0:0:1 - - [09/Sep/2018:20:33:43 +0800] "GET /host-manager/html HTTP/1.1" 401 2098
0:0:0:0:0:0:0:1 - - [09/Sep/2018:20:33:55 +0800] "GET /host-manager/html HTTP/1.1" 401 2098
0:0:0:0:0:0:0:1 - tomcatmichael [09/Sep/2018:20:34:41 +0800] "GET /manager/status HTTP/1.1" 403 3503
0:0:0:0:0:0:0:1 - tomcatmichael [09/Sep/2018:20:34:47 +0800] "GET /manager/html HTTP/1.1" 403 3503
0:0:0:0:0:0:0:1 - - [09/Sep/2018:20:35:45 +0800] "GET /manager/html HTTP/1.1" 401 2536
0:0:0:0:0:0:0:1 - tomcat [09/Sep/2018:20:35:55 +0800] "GET /manager/html HTTP/1.1" 200 19630
0:0:0:0:0:0:0:1 - - [09/Sep/2018:20:35:55 +0800] "GET /manager/images/asf-logo.svg HTTP/1.1" 200 20712
0:0:0:0:0:0:0:1 - - [09/Sep/2018:20:35:55 +0800] "GET /manager/images/tomcat.gif HTTP/1.1" 200 2066
0:0:0:0:0:0:0:1 - - [09/Sep/2018:20:35:56 +0800] "GET /favicon.ico HTTP/1.1" 200 21630
0:0:0:0:0:0:0:1 - tomcat [09/Sep/2018:20:41:24 +0800] "GET /manager/status;jsessionid=DE8D5B3BFA33E00F613D40A76C10E74E?org.apache.catalina.filters.CSRF_NONCE=BC612D8A4FD4AF99D07561E191FF9D93 HTTP/1.1" 200 7482
0:0:0:0:0:0:0:1 - tomcat [09/Sep/2018:20:42:36 +0800] "POST /manager/html/stop;jsessionid=DE8D5B3BFA33E00F613D40A76C10E74E?path=/&org.apache.catalina.filters.CSRF_NONCE=BC612D8A4FD4AF99D07561E191FF9D93 HTTP/1.1" 200 17753
0:0:0:0:0:0:0:1 - tomcat [09/Sep/2018:20:42:39 +0800] "POST /manager/html/start?path=/&org.apache.catalina.filters.CSRF_NONCE=67E631083B0EFAAC55AF50275682C2FA HTTP/1.1" 200 18314
0:0:0:0:0:0:0:1 - - [09/Sep/2018:21:01:16 +0800] "GET /example HTTP/1.1" 404 1081
0:0:0:0:0:0:0:1 - - [09/Sep/2018:21:01:25 +0800] "GET /examples HTTP/1.1" 302 -
0:0:0:0:0:0:0:1 - - [09/Sep/2018:21:01:25 +0800] "GET /examples/ HTTP/1.1" 200 1156
0:0:0:0:0:0:0:1 - - [09/Sep/2018:21:01:29 +0800] "GET /examples/servlets HTTP/1.1" 302 -
0:0:0:0:0:0:0:1 - - [09/Sep/2018:21:01:29 +0800] "GET /examples/servlets/ HTTP/1.1" 200 6789
0:0:0:0:0:0:0:1 - - [09/Sep/2018:21:01:29 +0800] "GET /examples/servlets/images/code.gif HTTP/1.1" 200 292
0:0:0:0:0:0:0:1 - - [09/Sep/2018:21:01:29 +0800] "GET /examples/servlets/images/execute.gif HTTP/1.1" 200 1242
0:0:0:0:0:0:0:1 - - [09/Sep/2018:21:01:29 +0800] "GET /examples/servlets/images/return.gif HTTP/1.1" 200 1231
0:0:0:0:0:0:0:1 - - [09/Sep/2018:21:25:37 +0800] "GET /example HTTP/1.1" 404 1081
0:0:0:0:0:0:0:1 - - [09/Sep/2018:21:25:37 +0800] "GET /favicon.ico HTTP/1.1" 200 21630
0:0:0:0:0:0:0:1 - - [09/Sep/2018:21:25:48 +0800] "GET / HTTP/1.1" 200 11488
0:0:0:0:0:0:0:1 - tomcat [09/Sep/2018:21:54:19 +0800] "POST /manager/html/start?path=/&org.apache.catalina.filters.CSRF_NONCE=67E631083B0EFAAC55AF50275682C2FA HTTP/1.1" 403 3503
0:0:0:0:0:0:0:1 - - [09/Sep/2018:21:54:20 +0800] "GET /favicon.ico HTTP/1.1" 200 21630
0:0:0:0:0:0:0:1 - - [09/Sep/2018:21:54:31 +0800] "GET /manager HTTP/1.1" 302 -
0:0:0:0:0:0:0:1 - - [09/Sep/2018:21:54:32 +0800] "GET /manager/ HTTP/1.1" 302 -
0:0:0:0:0:0:0:1 - tomcat [09/Sep/2018:21:54:32 +0800] "GET /manager/html HTTP/1.1" 200 20131
0:0:0:0:0:0:0:1 - - [09/Sep/2018:21:54:56 +0800] "GET /examples/ HTTP/1.1" 304 -
0:0:0:0:0:0:0:1 - - [09/Sep/2018:21:54:56 +0800] "GET /favicon.ico HTTP/1.1" 200 21630
0:0:0:0:0:0:0:1 - - [09/Sep/2018:21:54:59 +0800] "GET /eclipse-rdf4j-2.3.2 HTTP/1.1" 302 -
0:0:0:0:0:0:0:1 - - [09/Sep/2018:21:54:59 +0800] "GET /eclipse-rdf4j-2.3.2/ HTTP/1.1" 404 1098
0:0:0:0:0:0:0:1 - - [09/Sep/2018:21:55:04 +0800] "GET /eclipse-rdf4j-2.3.2 HTTP/1.1" 302 -
0:0:0:0:0:0:0:1 - - [09/Sep/2018:21:55:04 +0800] "GET /eclipse-rdf4j-2.3.2/ HTTP/1.1" 404 1098
0:0:0:0:0:0:0:1 - tomcat [09/Sep/2018:21:55:44 +0800] "POST /manager/html/upload?org.apache.catalina.filters.CSRF_NONCE=A60FAE9FA942C393466A77EABAB15395 HTTP/1.1" 200 20167
0:0:0:0:0:0:0:1 - tomcat [09/Sep/2018:21:56:39 +0800] "POST /manager/html/upload?org.apache.catalina.filters.CSRF_NONCE=B210CAA256A31DB38CEF66B98BDE29B9 HTTP/1.1" 200 20348
0:0:0:0:0:0:0:1 - tomcat [09/Sep/2018:22:04:00 +0800] "POST /manager/html/upload?org.apache.catalina.filters.CSRF_NONCE=A60FAE9FA942C393466A77EABAB15395 HTTP/1.1" 200 21954
0:0:0:0:0:0:0:1 - - [09/Sep/2018:22:04:09 +0800] "GET /rdf4j-server/ HTTP/1.1" 302 -
0:0:0:0:0:0:0:1 - - [09/Sep/2018:22:04:10 +0800] "GET /rdf4j-server/overview.view HTTP/1.1" 302 -
0:0:0:0:0:0:0:1 - - [09/Sep/2018:22:04:10 +0800] "GET /rdf4j-server/home/overview.view HTTP/1.1" 200 868
0:0:0:0:0:0:0:1 - - [09/Sep/2018:22:04:10 +0800] "GET /rdf4j-server/images/logo.png HTTP/1.1" 200 2256
0:0:0:0:0:0:0:1 - - [09/Sep/2018:22:04:10 +0800] "GET /rdf4j-server/images/product.png HTTP/1.1" 200 1337
0:0:0:0:0:0:0:1 - - [09/Sep/2018:22:04:10 +0800] "GET /rdf4j-server/styles/default/screen.css HTTP/1.1" 200 1792
0:0:0:0:0:0:0:1 - - [09/Sep/2018:22:04:11 +0800] "GET /rdf4j-server/basic/all.css HTTP/1.1" 404 1108
0:0:0:0:0:0:0:1 - - [09/Sep/2018:22:04:11 +0800] "GET /rdf4j-server/styles/default/print.css HTTP/1.1" 200 371
0:0:0:0:0:0:0:1 - - [09/Sep/2018:22:04:11 +0800] "GET /rdf4j-server/styles/w3-html40-recommended.css HTTP/1.1" 200 1025
0:0:0:0:0:0:0:1 - - [09/Sep/2018:22:04:11 +0800] "GET /rdf4j-server/styles/default/images/hr_menu.png HTTP/1.1" 200 226
0:0:0:0:0:0:0:1 - - [09/Sep/2018:22:04:11 +0800] "GET /rdf4j-server/favicon.png HTTP/1.1" 200 195
0:0:0:0:0:0:0:1 - - [09/Sep/2018:22:04:11 +0800] "GET /rdf4j-server/favicon.ico HTTP/1.1" 200 104
0:0:0:0:0:0:0:1 - - [09/Sep/2018:22:04:47 +0800] "GET /rdf4j-server/home/overview.view HTTP/1.1" 200 868
0:0:0:0:0:0:0:1 - - [09/Sep/2018:22:04:47 +0800] "GET /rdf4j-server/basic/all.css HTTP/1.1" 404 1108
0:0:0:0:0:0:0:1 - - [09/Sep/2018:22:04:52 +0800] "GET /rdf4j-server/system/overview.view HTTP/1.1" 200 1095
0:0:0:0:0:0:0:1 - - [09/Sep/2018:22:04:52 +0800] "GET /rdf4j-server/basic/all.css HTTP/1.1" 404 1108
0:0:0:0:0:0:0:1 - - [09/Sep/2018:22:04:55 +0800] "GET /rdf4j-server/home/overview.view HTTP/1.1" 200 868
0:0:0:0:0:0:0:1 - - [09/Sep/2018:22:04:55 +0800] "GET /rdf4j-server/basic/all.css HTTP/1.1" 404 1108
0:0:0:0:0:0:0:1 - tomcat [09/Sep/2018:22:16:54 +0800] "POST /manager/html/upload?org.apache.catalina.filters.CSRF_NONCE=B7247F02417EBB280E67617508F5B471 HTTP/1.1" 200 23800
0:0:0:0:0:0:0:1 - - [09/Sep/2018:22:17:09 +0800] "GET /rdf4j-server/ HTTP/1.1" 302 -
0:0:0:0:0:0:0:1 - - [09/Sep/2018:22:17:09 +0800] "GET /rdf4j-server/overview.view HTTP/1.1" 302 -
0:0:0:0:0:0:0:1 - - [09/Sep/2018:22:17:09 +0800] "GET /rdf4j-server/home/overview.view HTTP/1.1" 200 868
0:0:0:0:0:0:0:1 - - [09/Sep/2018:22:17:10 +0800] "GET /rdf4j-server/basic/all.css HTTP/1.1" 404 1108
0:0:0:0:0:0:0:1 - - [09/Sep/2018:22:17:25 +0800] "GET /rdf4j-workbench/ HTTP/1.1" 302 -
127.0.0.1 - - [09/Sep/2018:22:17:25 +0800] "GET /rdf4j-server/protocol HTTP/1.1" 200 1
0:0:0:0:0:0:0:1 - - [09/Sep/2018:22:17:26 +0800] "GET /rdf4j-workbench/repositories HTTP/1.1" 302 -
127.0.0.1 - - [09/Sep/2018:22:17:26 +0800] "GET /rdf4j-server/repositories HTTP/1.1" 200 70
127.0.0.1 - - [09/Sep/2018:22:17:26 +0800] "GET /rdf4j-server/repositories HTTP/1.1" 200 70
0:0:0:0:0:0:0:1 - - [09/Sep/2018:22:17:26 +0800] "GET /rdf4j-workbench/repositories/NONE/repositories HTTP/1.1" 200 480
0:0:0:0:0:0:0:1 - - [09/Sep/2018:22:17:26 +0800] "GET /rdf4j-workbench/transformations/repositories.xsl HTTP/1.1" 200 1548
0:0:0:0:0:0:0:1 - - [09/Sep/2018:22:17:27 +0800] "GET /rdf4j-workbench/locale/messages.xsl HTTP/1.1" 200 10399
0:0:0:0:0:0:0:1 - - [09/Sep/2018:22:17:27 +0800] "GET /rdf4j-workbench/transformations/template.xsl HTTP/1.1" 200 10484
0:0:0:0:0:0:0:1 - - [09/Sep/2018:22:17:27 +0800] "GET /rdf4j-workbench/transformations/table.xsl HTTP/1.1" 200 7033
0:0:0:0:0:0:0:1 - - [09/Sep/2018:22:17:27 +0800] "GET /rdf4j-workbench/transformations/url-encode.xsl HTTP/1.1" 200 3417
0:0:0:0:0:0:0:1 - - [09/Sep/2018:22:17:27 +0800] "GET /rdf4j-workbench/repositories/NONE/info HTTP/1.1" 200 5671
0:0:0:0:0:0:0:1 - - [09/Sep/2018:22:17:27 +0800] "GET /rdf4j-workbench/styles/default/print.css HTTP/1.1" 200 371
0:0:0:0:0:0:0:1 - - [09/Sep/2018:22:17:27 +0800] "GET /rdf4j-workbench/images/logo.png HTTP/1.1" 200 2256
0:0:0:0:0:0:0:1 - - [09/Sep/2018:22:17:27 +0800] "GET /rdf4j-workbench/images/product.png HTTP/1.1" 200 1829
0:0:0:0:0:0:0:1 - - [09/Sep/2018:22:17:27 +0800] "GET /rdf4j-workbench/styles/basic/all.css HTTP/1.1" 200 64
0:0:0:0:0:0:0:1 - - [09/Sep/2018:22:17:27 +0800] "GET /rdf4j-workbench/images/view.png HTTP/1.1" 200 733
0:0:0:0:0:0:0:1 - - [09/Sep/2018:22:17:27 +0800] "GET /rdf4j-workbench/images/edit.png HTTP/1.1" 200 847
0:0:0:0:0:0:0:1 - - [09/Sep/2018:22:17:27 +0800] "GET /rdf4j-workbench/scripts/jquery-1.11.0.min.js HTTP/1.1" 200 96381
0:0:0:0:0:0:0:1 - - [09/Sep/2018:22:17:27 +0800] "GET /rdf4j-workbench/styles/w3-html40-recommended.css HTTP/1.1" 200 2781
0:0:0:0:0:0:0:1 - - [09/Sep/2018:22:17:27 +0800] "GET /rdf4j-workbench/scripts/template.js HTTP/1.1" 200 3547
0:0:0:0:0:0:0:1 - - [09/Sep/2018:22:17:27 +0800] "GET /rdf4j-workbench/styles/yasqe.min.css HTTP/1.1" 200 8427
0:0:0:0:0:0:0:1 - - [09/Sep/2018:22:17:27 +0800] "GET /rdf4j-workbench/styles/default/screen.css HTTP/1.1" 200 7967
0:0:0:0:0:0:0:1 - - [09/Sep/2018:22:17:27 +0800] "GET /rdf4j-workbench/styles/default/images/hr_menu.png HTTP/1.1" 200 226
0:0:0:0:0:0:0:1 - - [09/Sep/2018:22:17:27 +0800] "GET /rdf4j-workbench/favicon.png HTTP/1.1" 200 195
0:0:0:0:0:0:0:1 - - [09/Sep/2018:22:17:27 +0800] "GET /rdf4j-workbench/favicon.ico HTTP/1.1" 200 1150
0:0:0:0:0:0:0:1 - - [09/Sep/2018:22:17:32 +0800] "GET /rdf4j-server/ HTTP/1.1" 302 -
0:0:0:0:0:0:0:1 - - [09/Sep/2018:22:17:32 +0800] "GET /rdf4j-server/overview.view HTTP/1.1" 302 -
0:0:0:0:0:0:0:1 - - [09/Sep/2018:22:17:32 +0800] "GET /rdf4j-server/home/overview.view HTTP/1.1" 200 868
0:0:0:0:0:0:0:1 - - [09/Sep/2018:22:17:32 +0800] "GET /rdf4j-server/basic/all.css HTTP/1.1" 404 1108
0:0:0:0:0:0:0:1 - - [09/Sep/2018:22:28:06 +0800] "GET /rdf4j-server/system/overview.view HTTP/1.1" 200 1095
0:0:0:0:0:0:0:1 - - [09/Sep/2018:22:28:06 +0800] "GET /rdf4j-server/basic/all.css HTTP/1.1" 404 1108
0:0:0:0:0:0:0:1 - - [09/Sep/2018:22:28:12 +0800] "GET /rdf4j-server/system/info/overview.view HTTP/1.1" 200 4210
0:0:0:0:0:0:0:1 - - [09/Sep/2018:22:28:13 +0800] "GET /rdf4j-server/basic/all.css HTTP/1.1" 404 1108
0:0:0:0:0:0:0:1 - - [09/Sep/2018:22:28:13 +0800] "GET /rdf4j-server/system/logging/overview.view HTTP/1.1" 500 1526
0:0:0:0:0:0:0:1 - - [09/Sep/2018:22:28:19 +0800] "GET /rdf4j-server/home/overview.view HTTP/1.1" 200 868
0:0:0:0:0:0:0:1 - - [09/Sep/2018:22:28:19 +0800] "GET /rdf4j-server/basic/all.css HTTP/1.1" 404 1108
0:0:0:0:0:0:0:1 - - [09/Sep/2018:22:30:55 +0800] "GET /rdf4j-workbench/repositories/NONE/create HTTP/1.1" 200 321
0:0:0:0:0:0:0:1 - - [09/Sep/2018:22:30:55 +0800] "GET /rdf4j-workbench/transformations/create.xsl HTTP/1.1" 200 3728
0:0:0:0:0:0:0:1 - - [09/Sep/2018:22:30:55 +0800] "GET /rdf4j-workbench/locale/messages.xsl HTTP/1.1" 304 -
0:0:0:0:0:0:0:1 - - [09/Sep/2018:22:30:55 +0800] "GET /rdf4j-workbench/transformations/template.xsl HTTP/1.1" 304 -
0:0:0:0:0:0:0:1 - - [09/Sep/2018:22:30:55 +0800] "GET /rdf4j-workbench/repositories/NONE/info HTTP/1.1" 200 5671
0:0:0:0:0:0:0:1 - - [09/Sep/2018:22:30:55 +0800] "GET /rdf4j-workbench/styles/default/print.css HTTP/1.1" 304 -
0:0:0:0:0:0:0:1 - - [09/Sep/2018:22:30:55 +0800] "GET /rdf4j-workbench/styles/basic/all.css HTTP/1.1" 304 -
0:0:0:0:0:0:0:1 - - [09/Sep/2018:22:30:55 +0800] "GET /rdf4j-workbench/images/logo.png HTTP/1.1" 304 -
0:0:0:0:0:0:0:1 - - [09/Sep/2018:22:30:55 +0800] "GET /rdf4j-workbench/images/product.png HTTP/1.1" 304 -
0:0:0:0:0:0:0:1 - - [09/Sep/2018:22:30:55 +0800] "GET /rdf4j-workbench/scripts/template.js HTTP/1.1" 304 -
0:0:0:0:0:0:0:1 - - [09/Sep/2018:22:30:55 +0800] "GET /rdf4j-workbench/scripts/jquery-1.11.0.min.js HTTP/1.1" 304 -
0:0:0:0:0:0:0:1 - - [09/Sep/2018:22:30:55 +0800] "GET /rdf4j-workbench/styles/yasqe.min.css HTTP/1.1" 304 -
0:0:0:0:0:0:0:1 - - [09/Sep/2018:22:30:55 +0800] "GET /rdf4j-workbench/styles/default/screen.css HTTP/1.1" 304 -
0:0:0:0:0:0:0:1 - - [09/Sep/2018:22:30:55 +0800] "GET /rdf4j-workbench/styles/w3-html40-recommended.css HTTP/1.1" 304 -
0:0:0:0:0:0:0:1 - - [09/Sep/2018:22:30:55 +0800] "GET /rdf4j-workbench/styles/default/images/hr_menu.png HTTP/1.1" 304 -
0:0:0:0:0:0:0:1 - - [09/Sep/2018:22:36:47 +0800] "GET /rdf4j-workbench/repositories/NONE/create?type=memory&id=reference&title=Reference+data&next=Next HTTP/1.1" 200 328
0:0:0:0:0:0:0:1 - - [09/Sep/2018:22:36:47 +0800] "GET /rdf4j-workbench/transformations/create-memory.xsl HTTP/1.1" 200 2953
0:0:0:0:0:0:0:1 - - [09/Sep/2018:22:36:47 +0800] "GET /rdf4j-workbench/repositories/NONE/info HTTP/1.1" 200 5671
0:0:0:0:0:0:0:1 - - [09/Sep/2018:22:36:47 +0800] "GET /rdf4j-workbench/scripts/create.js HTTP/1.1" 200 2609
127.0.0.1 - - [09/Sep/2018:22:38:10 +0800] "GET /rdf4j-server/repositories HTTP/1.1" 200 70
0:0:0:0:0:0:0:1 - - [09/Sep/2018:22:38:10 +0800] "GET /rdf4j-workbench/repositories/reference/info HTTP/1.1" 500 2005
127.0.0.1 - - [09/Sep/2018:22:38:13 +0800] "GET /rdf4j-server/repositories HTTP/1.1" 200 70
0:0:0:0:0:0:0:1 - - [09/Sep/2018:22:38:13 +0800] "POST /rdf4j-workbench/repositories/NONE/create HTTP/1.1" 302 -
127.0.0.1 - - [09/Sep/2018:22:38:13 +0800] "POST /rdf4j-server/repositories/SYSTEM/statements?context=%3Chttp%3A%2F%2Flocalhost%3A8000%2Frdf4j-server%2Frepositories%2Freference%23reference%3E&baseURI=%3Chttp%3A%2F%2Flocalhost%3A8000%2Frdf4j-server%2Frepositories%2Freference%3E&preserveNodeId=true HTTP/1.1" 204 -
127.0.0.1 - - [09/Sep/2018:22:38:13 +0800] "GET /rdf4j-server/repositories HTTP/1.1" 200 301
127.0.0.1 - - [09/Sep/2018:22:38:13 +0800] "GET /rdf4j-server/repositories HTTP/1.1" 200 301
127.0.0.1 - - [09/Sep/2018:22:38:13 +0800] "GET /rdf4j-server/protocol HTTP/1.1" 200 1
127.0.0.1 - - [09/Sep/2018:22:38:13 +0800] "GET /rdf4j-server/repositories/reference/size HTTP/1.1" 200 1
127.0.0.1 - - [09/Sep/2018:22:38:13 +0800] "GET /rdf4j-server/repositories/reference/contexts HTTP/1.1" 200 37
0:0:0:0:0:0:0:1 - - [09/Sep/2018:22:38:13 +0800] "GET /rdf4j-workbench/repositories/reference/summary HTTP/1.1" 200 1043
0:0:0:0:0:0:0:1 - - [09/Sep/2018:22:38:13 +0800] "GET /rdf4j-workbench/transformations/summary.xsl HTTP/1.1" 200 1898
127.0.0.1 - - [09/Sep/2018:22:38:13 +0800] "GET /rdf4j-server/repositories HTTP/1.1" 200 301
0:0:0:0:0:0:0:1 - - [09/Sep/2018:22:38:13 +0800] "GET /rdf4j-workbench/repositories/reference/info HTTP/1.1" 200 5948
127.0.0.1 - - [09/Sep/2018:22:42:04 +0800] "GET /rdf4j-server/repositories/reference/contexts HTTP/1.1" 200 37
127.0.0.1 - - [09/Sep/2018:22:42:04 +0800] "GET /rdf4j-server/repositories/reference/size HTTP/1.1" 200 1
0:0:0:0:0:0:0:1 - - [09/Sep/2018:22:42:04 +0800] "GET /rdf4j-workbench/repositories/reference/summary HTTP/1.1" 200 1043
0:0:0:0:0:0:0:1 - - [09/Sep/2018:22:42:04 +0800] "GET /rdf4j-workbench/locale/messages.xsl HTTP/1.1" 304 -
0:0:0:0:0:0:0:1 - - [09/Sep/2018:22:42:04 +0800] "GET /rdf4j-workbench/transformations/template.xsl HTTP/1.1" 304 -
127.0.0.1 - - [09/Sep/2018:22:42:04 +0800] "GET /rdf4j-server/repositories HTTP/1.1" 200 301
0:0:0:0:0:0:0:1 - - [09/Sep/2018:22:42:04 +0800] "GET /rdf4j-workbench/repositories/reference/info HTTP/1.1" 200 5948
0:0:0:0:0:0:0:1 - - [09/Sep/2018:22:42:04 +0800] "GET /rdf4j-workbench/styles/default/screen.css HTTP/1.1" 304 -
0:0:0:0:0:0:0:1 - - [09/Sep/2018:22:42:04 +0800] "GET /rdf4j-workbench/styles/basic/all.css HTTP/1.1" 304 -
0:0:0:0:0:0:0:1 - - [09/Sep/2018:22:42:04 +0800] "GET /rdf4j-workbench/styles/yasqe.min.css HTTP/1.1" 304 -
0:0:0:0:0:0:0:1 - - [09/Sep/2018:22:42:04 +0800] "GET /rdf4j-workbench/scripts/template.js HTTP/1.1" 304 -
0:0:0:0:0:0:0:1 - - [09/Sep/2018:22:42:04 +0800] "GET /rdf4j-workbench/styles/default/print.css HTTP/1.1" 304 -
0:0:0:0:0:0:0:1 - - [09/Sep/2018:22:42:04 +0800] "GET /rdf4j-workbench/scripts/jquery-1.11.0.min.js HTTP/1.1" 304 -
0:0:0:0:0:0:0:1 - - [09/Sep/2018:22:42:04 +0800] "GET /rdf4j-workbench/images/logo.png HTTP/1.1" 304 -
0:0:0:0:0:0:0:1 - - [09/Sep/2018:22:42:04 +0800] "GET /rdf4j-workbench/images/product.png HTTP/1.1" 304 -
0:0:0:0:0:0:0:1 - - [09/Sep/2018:22:42:04 +0800] "GET /rdf4j-workbench/styles/w3-html40-recommended.css HTTP/1.1" 304 -
0:0:0:0:0:0:0:1 - - [09/Sep/2018:22:42:04 +0800] "GET /rdf4j-workbench/styles/default/images/hr_menu.png HTTP/1.1" 304 -
127.0.0.1 - - [09/Sep/2018:22:42:06 +0800] "GET /rdf4j-server/repositories/reference/namespaces HTTP/1.1" 200 47
0:0:0:0:0:0:0:1 - - [09/Sep/2018:22:42:06 +0800] "GET /rdf4j-workbench/repositories/reference/namespaces HTTP/1.1" 200 386
0:0:0:0:0:0:0:1 - - [09/Sep/2018:22:42:06 +0800] "GET /rdf4j-workbench/transformations/namespaces.xsl HTTP/1.1" 200 1939
0:0:0:0:0:0:0:1 - - [09/Sep/2018:22:42:06 +0800] "GET /rdf4j-workbench/transformations/table.xsl HTTP/1.1" 304 -
0:0:0:0:0:0:0:1 - - [09/Sep/2018:22:42:06 +0800] "GET /rdf4j-workbench/transformations/url-encode.xsl HTTP/1.1" 304 -
127.0.0.1 - - [09/Sep/2018:22:42:06 +0800] "GET /rdf4j-server/repositories HTTP/1.1" 200 301
0:0:0:0:0:0:0:1 - - [09/Sep/2018:22:42:06 +0800] "GET /rdf4j-workbench/repositories/reference/info HTTP/1.1" 200 5948
0:0:0:0:0:0:0:1 - - [09/Sep/2018:22:42:06 +0800] "GET /rdf4j-workbench/scripts/namespaces.js HTTP/1.1" 200 878
127.0.0.1 - - [09/Sep/2018:22:42:11 +0800] "GET /rdf4j-server/repositories/reference/namespaces HTTP/1.1" 200 47
127.0.0.1 - - [09/Sep/2018:22:42:11 +0800] "GET /rdf4j-server/repositories/reference/contexts HTTP/1.1" 200 37
0:0:0:0:0:0:0:1 - - [09/Sep/2018:22:42:11 +0800] "GET /rdf4j-workbench/repositories/reference/contexts HTTP/1.1" 200 353
0:0:0:0:0:0:0:1 - - [09/Sep/2018:22:42:11 +0800] "GET /rdf4j-workbench/transformations/contexts.xsl HTTP/1.1" 200 383
127.0.0.1 - - [09/Sep/2018:22:42:11 +0800] "GET /rdf4j-server/repositories HTTP/1.1" 200 301
0:0:0:0:0:0:0:1 - - [09/Sep/2018:22:42:11 +0800] "GET /rdf4j-workbench/repositories/reference/info HTTP/1.1" 200 5948
127.0.0.1 - - [09/Sep/2018:22:42:20 +0800] "GET /rdf4j-server/repositories/reference/namespaces HTTP/1.1" 200 47
127.0.0.1 - - [09/Sep/2018:22:42:21 +0800] "POST /rdf4j-server/repositories/reference HTTP/1.1" 200 32
0:0:0:0:0:0:0:1 - - [09/Sep/2018:22:42:21 +0800] "GET /rdf4j-workbench/repositories/reference/types HTTP/1.1" 200 347
0:0:0:0:0:0:0:1 - - [09/Sep/2018:22:42:21 +0800] "GET /rdf4j-workbench/transformations/types.xsl HTTP/1.1" 200 379
127.0.0.1 - - [09/Sep/2018:22:42:21 +0800] "GET /rdf4j-server/repositories HTTP/1.1" 200 301
0:0:0:0:0:0:0:1 - - [09/Sep/2018:22:42:21 +0800] "GET /rdf4j-workbench/repositories/reference/info HTTP/1.1" 200 5948
127.0.0.1 - - [09/Sep/2018:22:42:23 +0800] "GET /rdf4j-server/repositories/reference/namespaces HTTP/1.1" 200 47
0:0:0:0:0:0:0:1 - - [09/Sep/2018:22:42:23 +0800] "GET /rdf4j-workbench/repositories/reference/query HTTP/1.1" 200 349
0:0:0:0:0:0:0:1 - - [09/Sep/2018:22:42:23 +0800] "GET /rdf4j-workbench/transformations/query.xsl HTTP/1.1" 200 5339
127.0.0.1 - - [09/Sep/2018:22:42:23 +0800] "GET /rdf4j-server/repositories HTTP/1.1" 200 301
0:0:0:0:0:0:0:1 - - [09/Sep/2018:22:42:23 +0800] "GET /rdf4j-workbench/repositories/reference/info HTTP/1.1" 200 5948
127.0.0.1 - - [09/Sep/2018:22:42:23 +0800] "GET /rdf4j-server/repositories/reference/namespaces HTTP/1.1" 200 47
0:0:0:0:0:0:0:1 - - [09/Sep/2018:22:42:23 +0800] "GET /rdf4j-workbench/repositories/reference/namespaces HTTP/1.1" 200 386
0:0:0:0:0:0:0:1 - - [09/Sep/2018:22:42:23 +0800] "GET /rdf4j-workbench/scripts/codemirror.4.5.0.min.js HTTP/1.1" 200 198904
0:0:0:0:0:0:0:1 - - [09/Sep/2018:22:42:23 +0800] "GET /rdf4j-workbench/scripts/yasqe.min.js HTTP/1.1" 200 243917
0:0:0:0:0:0:0:1 - - [09/Sep/2018:22:42:23 +0800] "GET /rdf4j-workbench/scripts/yasqeHelper.js HTTP/1.1" 200 2166
0:0:0:0:0:0:0:1 - - [09/Sep/2018:22:42:23 +0800] "GET /rdf4j-workbench/scripts/query.js HTTP/1.1" 200 13545
127.0.0.1 - - [09/Sep/2018:22:42:29 +0800] "GET /rdf4j-server/repositories/reference/statements?subj=%3Curn%3Auuid%3A65a093a3-c248-4cc3-95c3-0e2bb8cedac6%3E&pred=%3Curn%3Auuid%3A65a093a3-c248-4cc3-95c3-0e2bb8cedac6%3E&obj=%3Curn%3Auuid%3A65a093a3-c248-4cc3-95c3-0e2bb8cedac6%3E&context=%3Curn%3Auuid%3A65a093a3-c248-4cc3-95c3-0e2bb8cedac6%3E&infer=false HTTP/1.1" 200 19
0:0:0:0:0:0:0:1 - - [09/Sep/2018:22:42:29 +0800] "GET /rdf4j-workbench/repositories/reference/saved-queries HTTP/1.1" 200 591
0:0:0:0:0:0:0:1 - - [09/Sep/2018:22:42:29 +0800] "GET /rdf4j-workbench/transformations/saved-queries.xsl HTTP/1.1" 200 5171
127.0.0.1 - - [09/Sep/2018:22:42:29 +0800] "GET /rdf4j-server/repositories HTTP/1.1" 200 301
0:0:0:0:0:0:0:1 - - [09/Sep/2018:22:42:30 +0800] "GET /rdf4j-workbench/repositories/reference/info HTTP/1.1" 200 5948
0:0:0:0:0:0:0:1 - - [09/Sep/2018:22:42:30 +0800] "GET /rdf4j-workbench/scripts/saved-queries.js HTTP/1.1" 200 3831
127.0.0.1 - - [09/Sep/2018:22:42:31 +0800] "GET /rdf4j-server/repositories/reference/namespaces HTTP/1.1" 200 47
127.0.0.1 - - [09/Sep/2018:22:42:31 +0800] "GET /rdf4j-server/repositories/reference/statements?infer=false HTTP/1.1" 200 19
0:0:0:0:0:0:0:1 - - [09/Sep/2018:22:42:31 +0800] "GET /rdf4j-workbench/repositories/reference/export HTTP/1.1" 200 442
0:0:0:0:0:0:0:1 - - [09/Sep/2018:22:42:31 +0800] "GET /rdf4j-workbench/transformations/export.xsl HTTP/1.1" 200 2325
127.0.0.1 - - [09/Sep/2018:22:42:31 +0800] "GET /rdf4j-server/repositories HTTP/1.1" 200 301
0:0:0:0:0:0:0:1 - - [09/Sep/2018:22:42:31 +0800] "GET /rdf4j-workbench/repositories/reference/info HTTP/1.1" 200 5948
0:0:0:0:0:0:0:1 - - [09/Sep/2018:22:42:31 +0800] "GET /rdf4j-workbench/scripts/export.js HTTP/1.1" 200 806
0:0:0:0:0:0:0:1 - - [09/Sep/2018:22:42:31 +0800] "GET /rdf4j-workbench/scripts/paging.js HTTP/1.1" 200 12052
0:0:0:0:0:0:0:1 - - [09/Sep/2018:22:42:37 +0800] "GET /rdf4j-workbench/repositories/reference/add HTTP/1.1" 200 318
0:0:0:0:0:0:0:1 - - [09/Sep/2018:22:42:37 +0800] "GET /rdf4j-workbench/transformations/add.xsl HTTP/1.1" 200 4111
127.0.0.1 - - [09/Sep/2018:22:42:37 +0800] "GET /rdf4j-server/repositories HTTP/1.1" 200 301
0:0:0:0:0:0:0:1 - - [09/Sep/2018:22:42:37 +0800] "GET /rdf4j-workbench/repositories/reference/info HTTP/1.1" 200 5948
0:0:0:0:0:0:0:1 - - [09/Sep/2018:22:42:37 +0800] "GET /rdf4j-workbench/scripts/add.js HTTP/1.1" 200 3191
127.0.0.1 - - [09/Sep/2018:22:43:59 +0800] "POST /rdf4j-server/repositories/reference/statements?context=%3Cfile%3A%2F%2FC%3A%2Ffakepath%2FTopology.ttl%3E&baseURI=%3Cfile%3A%2F%2FC%3A%2Ffakepath%2FTopology.ttl%3E HTTP/1.1" 400 64
0:0:0:0:0:0:0:1 - - [09/Sep/2018:22:43:59 +0800] "POST /rdf4j-workbench/repositories/reference/add HTTP/1.1" 200 889
127.0.0.1 - - [09/Sep/2018:22:43:59 +0800] "GET /rdf4j-server/repositories HTTP/1.1" 200 301
0:0:0:0:0:0:0:1 - - [09/Sep/2018:22:43:59 +0800] "GET /rdf4j-workbench/repositories/reference/info HTTP/1.1" 200 5948
0:0:0:0:0:0:0:1 - - [09/Sep/2018:22:45:29 +0800] "GET /rdf4j-workbench/repositories/reference/add HTTP/1.1" 200 318
127.0.0.1 - - [09/Sep/2018:22:45:29 +0800] "GET /rdf4j-server/repositories HTTP/1.1" 200 301
0:0:0:0:0:0:0:1 - - [09/Sep/2018:22:45:29 +0800] "GET /rdf4j-workbench/repositories/reference/info HTTP/1.1" 200 5948
0:0:0:0:0:0:0:1 - - [09/Sep/2018:22:45:32 +0800] "POST /rdf4j-workbench/repositories/reference/add HTTP/1.1" 200 999
127.0.0.1 - - [09/Sep/2018:22:45:32 +0800] "GET /rdf4j-server/repositories HTTP/1.1" 200 301
0:0:0:0:0:0:0:1 - - [09/Sep/2018:22:45:32 +0800] "GET /rdf4j-workbench/repositories/reference/info HTTP/1.1" 200 5948
127.0.0.1 - - [09/Sep/2018:22:53:11 +0800] "GET /rdf4j-server/repositories/reference/namespaces HTTP/1.1" 200 47
127.0.0.1 - - [09/Sep/2018:22:53:11 +0800] "GET /rdf4j-server/repositories/reference/contexts HTTP/1.1" 200 37
0:0:0:0:0:0:0:1 - - [09/Sep/2018:22:53:11 +0800] "GET /rdf4j-workbench/repositories/reference/contexts HTTP/1.1" 200 353
0:0:0:0:0:0:0:1 - - [09/Sep/2018:22:53:11 +0800] "GET /rdf4j-workbench/transformations/contexts.xsl HTTP/1.1" 304 -
0:0:0:0:0:0:0:1 - - [09/Sep/2018:22:53:11 +0800] "GET /rdf4j-workbench/locale/messages.xsl HTTP/1.1" 304 -
0:0:0:0:0:0:0:1 - - [09/Sep/2018:22:53:11 +0800] "GET /rdf4j-workbench/transformations/template.xsl HTTP/1.1" 304 -
0:0:0:0:0:0:0:1 - - [09/Sep/2018:22:53:11 +0800] "GET /rdf4j-workbench/transformations/table.xsl HTTP/1.1" 304 -
0:0:0:0:0:0:0:1 - - [09/Sep/2018:22:53:11 +0800] "GET /rdf4j-workbench/transformations/url-encode.xsl HTTP/1.1" 304 -
127.0.0.1 - - [09/Sep/2018:22:53:11 +0800] "GET /rdf4j-server/repositories HTTP/1.1" 200 301
0:0:0:0:0:0:0:1 - - [09/Sep/2018:22:53:11 +0800] "GET /rdf4j-workbench/repositories/reference/info HTTP/1.1" 200 5948
0:0:0:0:0:0:0:1 - - [09/Sep/2018:22:53:12 +0800] "GET /rdf4j-workbench/styles/yasqe.min.css HTTP/1.1" 304 -
0:0:0:0:0:0:0:1 - - [09/Sep/2018:22:53:12 +0800] "GET /rdf4j-workbench/images/logo.png HTTP/1.1" 304 -
0:0:0:0:0:0:0:1 - - [09/Sep/2018:22:53:12 +0800] "GET /rdf4j-workbench/styles/default/print.css HTTP/1.1" 304 -
0:0:0:0:0:0:0:1 - - [09/Sep/2018:22:53:12 +0800] "GET /rdf4j-workbench/styles/basic/all.css HTTP/1.1" 304 -
0:0:0:0:0:0:0:1 - - [09/Sep/2018:22:53:12 +0800] "GET /rdf4j-workbench/scripts/template.js HTTP/1.1" 304 -
0:0:0:0:0:0:0:1 - - [09/Sep/2018:22:53:12 +0800] "GET /rdf4j-workbench/images/product.png HTTP/1.1" 304 -
0:0:0:0:0:0:0:1 - - [09/Sep/2018:22:53:12 +0800] "GET /rdf4j-workbench/styles/default/screen.css HTTP/1.1" 304 -
0:0:0:0:0:0:0:1 - - [09/Sep/2018:22:53:12 +0800] "GET /rdf4j-workbench/scripts/jquery-1.11.0.min.js HTTP/1.1" 304 -
0:0:0:0:0:0:0:1 - - [09/Sep/2018:22:53:12 +0800] "GET /rdf4j-workbench/styles/w3-html40-recommended.css HTTP/1.1" 304 -
0:0:0:0:0:0:0:1 - - [09/Sep/2018:22:53:12 +0800] "GET /rdf4j-workbench/styles/default/images/hr_menu.png HTTP/1.1" 304 -
127.0.0.1 - - [09/Sep/2018:22:59:38 +0800] "GET /rdf4j-server/repositories/reference/namespaces HTTP/1.1" 200 47
127.0.0.1 - - [09/Sep/2018:22:59:38 +0800] "POST /rdf4j-server/repositories/reference HTTP/1.1" 200 32
0:0:0:0:0:0:0:1 - - [09/Sep/2018:22:59:38 +0800] "GET /rdf4j-workbench/repositories/reference/types HTTP/1.1" 200 347
0:0:0:0:0:0:0:1 - - [09/Sep/2018:22:59:38 +0800] "GET /rdf4j-workbench/transformations/types.xsl HTTP/1.1" 304 -
127.0.0.1 - - [09/Sep/2018:22:59:38 +0800] "GET /rdf4j-server/repositories HTTP/1.1" 200 301
0:0:0:0:0:0:0:1 - - [09/Sep/2018:22:59:38 +0800] "GET /rdf4j-workbench/repositories/reference/info HTTP/1.1" 200 5948
127.0.0.1 - - [09/Sep/2018:23:00:07 +0800] "GET /rdf4j-server/repositories/reference/namespaces HTTP/1.1" 200 47
0:0:0:0:0:0:0:1 - - [09/Sep/2018:23:00:07 +0800] "GET /rdf4j-workbench/repositories/reference/explore HTTP/1.1" 200 443
0:0:0:0:0:0:0:1 - - [09/Sep/2018:23:00:07 +0800] "GET /rdf4j-workbench/transformations/explore.xsl HTTP/1.1" 200 7146
127.0.0.1 - - [09/Sep/2018:23:00:07 +0800] "GET /rdf4j-server/repositories HTTP/1.1" 200 301
0:0:0:0:0:0:0:1 - - [09/Sep/2018:23:00:07 +0800] "GET /rdf4j-workbench/repositories/reference/info HTTP/1.1" 200 5948
0:0:0:0:0:0:0:1 - - [09/Sep/2018:23:00:07 +0800] "GET /rdf4j-workbench/scripts/paging.js HTTP/1.1" 304 -
0:0:0:0:0:0:0:1 - - [09/Sep/2018:23:00:07 +0800] "GET /rdf4j-workbench/scripts/explore.js HTTP/1.1" 200 3311
0:0:0:0:0:0:0:1 - - [09/Sep/2018:23:06:48 +0800] "GET /rdf4j-workbench/repositories/NONE/server HTTP/1.1" 200 454
0:0:0:0:0:0:0:1 - - [09/Sep/2018:23:06:48 +0800] "GET /rdf4j-workbench/transformations/server.xsl HTTP/1.1" 200 1878
0:0:0:0:0:0:0:1 - - [09/Sep/2018:23:06:48 +0800] "GET /rdf4j-workbench/locale/messages.xsl HTTP/1.1" 304 -
0:0:0:0:0:0:0:1 - - [09/Sep/2018:23:06:48 +0800] "GET /rdf4j-workbench/transformations/template.xsl HTTP/1.1" 304 -
0:0:0:0:0:0:0:1 - - [09/Sep/2018:23:06:49 +0800] "GET /rdf4j-workbench/styles/default/print.css HTTP/1.1" 304 -
0:0:0:0:0:0:0:1 - - [09/Sep/2018:23:06:49 +0800] "GET /rdf4j-workbench/styles/basic/all.css HTTP/1.1" 304 -
0:0:0:0:0:0:0:1 - - [09/Sep/2018:23:06:49 +0800] "GET /rdf4j-workbench/images/product.png HTTP/1.1" 304 -
0:0:0:0:0:0:0:1 - - [09/Sep/2018:23:06:49 +0800] "GET /rdf4j-workbench/images/logo.png HTTP/1.1" 304 -
0:0:0:0:0:0:0:1 - - [09/Sep/2018:23:06:49 +0800] "GET /rdf4j-workbench/scripts/jquery-1.11.0.min.js HTTP/1.1" 304 -
0:0:0:0:0:0:0:1 - - [09/Sep/2018:23:06:49 +0800] "GET /rdf4j-workbench/scripts/template.js HTTP/1.1" 304 -
0:0:0:0:0:0:0:1 - - [09/Sep/2018:23:06:49 +0800] "GET /rdf4j-workbench/styles/default/screen.css HTTP/1.1" 304 -
0:0:0:0:0:0:0:1 - - [09/Sep/2018:23:06:49 +0800] "GET /rdf4j-workbench/styles/w3-html40-recommended.css HTTP/1.1" 304 -
0:0:0:0:0:0:0:1 - - [09/Sep/2018:23:06:49 +0800] "GET /rdf4j-workbench/scripts/server.js HTTP/1.1" 200 868
0:0:0:0:0:0:0:1 - - [09/Sep/2018:23:06:49 +0800] "GET /rdf4j-workbench/styles/yasqe.min.css HTTP/1.1" 304 -
0:0:0:0:0:0:0:1 - - [09/Sep/2018:23:06:49 +0800] "GET /rdf4j-workbench/styles/default/images/hr_menu.png HTTP/1.1" 304 -
0:0:0:0:0:0:0:1 - - [09/Sep/2018:23:07:04 +0800] "GET /rdf4j-workbench/repositories/ HTTP/1.1" 302 -
127.0.0.1 - - [09/Sep/2018:23:07:04 +0800] "GET /rdf4j-server/repositories HTTP/1.1" 200 301
0:0:0:0:0:0:0:1 - - [09/Sep/2018:23:07:04 +0800] "GET /rdf4j-workbench/repositories/NONE/repositories HTTP/1.1" 200 1045
0:0:0:0:0:0:0:1 - - [09/Sep/2018:23:07:04 +0800] "GET /rdf4j-workbench/transformations/repositories.xsl HTTP/1.1" 304 -
0:0:0:0:0:0:0:1 - - [09/Sep/2018:23:07:04 +0800] "GET /rdf4j-workbench/transformations/table.xsl HTTP/1.1" 304 -
0:0:0:0:0:0:0:1 - - [09/Sep/2018:23:07:04 +0800] "GET /rdf4j-workbench/transformations/url-encode.xsl HTTP/1.1" 304 -
0:0:0:0:0:0:0:1 - - [09/Sep/2018:23:07:04 +0800] "GET /rdf4j-workbench/repositories/NONE/info HTTP/1.1" 200 5671
0:0:0:0:0:0:0:1 - - [09/Sep/2018:23:07:04 +0800] "GET /rdf4j-workbench/images/edit.png HTTP/1.1" 304 -
0:0:0:0:0:0:0:1 - - [09/Sep/2018:23:07:04 +0800] "GET /rdf4j-workbench/images/view.png HTTP/1.1" 304 -
0:0:0:0:0:0:0:1 - - [09/Sep/2018:23:07:04 +0800] "GET /rdf4j-workbench/images/affirmative.png HTTP/1.1" 200 607
0:0:0:0:0:0:0:1 - - [09/Sep/2018:23:07:08 +0800] "GET /rdf4j-workbench/repositories/reference/ HTTP/1.1" 302 -
127.0.0.1 - - [09/Sep/2018:23:07:08 +0800] "GET /rdf4j-server/repositories/reference/size HTTP/1.1" 200 1
127.0.0.1 - - [09/Sep/2018:23:07:08 +0800] "GET /rdf4j-server/repositories/reference/contexts HTTP/1.1" 200 37
0:0:0:0:0:0:0:1 - - [09/Sep/2018:23:07:08 +0800] "GET /rdf4j-workbench/repositories/reference/summary HTTP/1.1" 200 1043
0:0:0:0:0:0:0:1 - - [09/Sep/2018:23:07:08 +0800] "GET /rdf4j-workbench/transformations/summary.xsl HTTP/1.1" 304 -
127.0.0.1 - - [09/Sep/2018:23:07:08 +0800] "GET /rdf4j-server/repositories HTTP/1.1" 200 301
0:0:0:0:0:0:0:1 - - [09/Sep/2018:23:07:08 +0800] "GET /rdf4j-workbench/repositories/reference/info HTTP/1.1" 200 5948
0:0:0:0:0:0:0:1 - - [09/Sep/2018:23:40:04 +0800] "GET /rdf4j-workbench/repositories/reference/summary/organogram-co HTTP/1.1" 500 2145
0:0:0:0:0:0:0:1 - - [09/Sep/2018:23:40:15 +0800] "GET /rdf4j-workbench/repositories/reference/summary/organogram-co/2010-10-30 HTTP/1.1" 500 2175
127.0.0.1 - - [09/Sep/2018:23:40:30 +0800] "GET /rdf4j-server/repositories/reference/size HTTP/1.1" 200 1
127.0.0.1 - - [09/Sep/2018:23:40:30 +0800] "GET /rdf4j-server/repositories/reference/contexts HTTP/1.1" 200 37
0:0:0:0:0:0:0:1 - - [09/Sep/2018:23:40:30 +0800] "GET /rdf4j-workbench/repositories/reference/summary HTTP/1.1" 200 1043
0:0:0:0:0:0:0:1 - - [09/Sep/2018:23:40:30 +0800] "GET /rdf4j-workbench/transformations/summary.xsl HTTP/1.1" 304 -
0:0:0:0:0:0:0:1 - - [09/Sep/2018:23:40:30 +0800] "GET /rdf4j-workbench/locale/messages.xsl HTTP/1.1" 304 -
0:0:0:0:0:0:0:1 - - [09/Sep/2018:23:40:30 +0800] "GET /rdf4j-workbench/transformations/template.xsl HTTP/1.1" 304 -
127.0.0.1 - - [09/Sep/2018:23:40:30 +0800] "GET /rdf4j-server/repositories HTTP/1.1" 200 301
0:0:0:0:0:0:0:1 - - [09/Sep/2018:23:40:30 +0800] "GET /rdf4j-workbench/repositories/reference/info HTTP/1.1" 200 5948
0:0:0:0:0:0:0:1 - - [09/Sep/2018:23:40:31 +0800] "GET /rdf4j-workbench/styles/default/print.css HTTP/1.1" 304 -
0:0:0:0:0:0:0:1 - - [09/Sep/2018:23:40:31 +0800] "GET /rdf4j-workbench/styles/yasqe.min.css HTTP/1.1" 304 -
0:0:0:0:0:0:0:1 - - [09/Sep/2018:23:40:31 +0800] "GET /rdf4j-workbench/scripts/template.js HTTP/1.1" 304 -
0:0:0:0:0:0:0:1 - - [09/Sep/2018:23:40:31 +0800] "GET /rdf4j-workbench/images/product.png HTTP/1.1" 304 -
0:0:0:0:0:0:0:1 - - [09/Sep/2018:23:40:31 +0800] "GET /rdf4j-workbench/styles/default/screen.css HTTP/1.1" 304 -
0:0:0:0:0:0:0:1 - - [09/Sep/2018:23:40:31 +0800] "GET /rdf4j-workbench/styles/basic/all.css HTTP/1.1" 304 -
0:0:0:0:0:0:0:1 - - [09/Sep/2018:23:40:31 +0800] "GET /rdf4j-workbench/scripts/jquery-1.11.0.min.js HTTP/1.1" 304 -
0:0:0:0:0:0:0:1 - - [09/Sep/2018:23:40:31 +0800] "GET /rdf4j-workbench/styles/w3-html40-recommended.css HTTP/1.1" 304 -
0:0:0:0:0:0:0:1 - - [09/Sep/2018:23:40:31 +0800] "GET /rdf4j-workbench/images/logo.png HTTP/1.1" 304 -
0:0:0:0:0:0:0:1 - - [09/Sep/2018:23:40:31 +0800] "GET /rdf4j-workbench/styles/default/images/hr_menu.png HTTP/1.1" 304 -
0:0:0:0:0:0:0:1 - - [09/Sep/2018:23:40:36 +0800] "GET /rdf4j-workbench/repositories/ HTTP/1.1" 302 -
127.0.0.1 - - [09/Sep/2018:23:40:36 +0800] "GET /rdf4j-server/repositories HTTP/1.1" 200 301
0:0:0:0:0:0:0:1 - - [09/Sep/2018:23:40:36 +0800] "GET /rdf4j-workbench/repositories/NONE/repositories HTTP/1.1" 200 1045
0:0:0:0:0:0:0:1 - - [09/Sep/2018:23:40:36 +0800] "GET /rdf4j-workbench/transformations/repositories.xsl HTTP/1.1" 304 -
0:0:0:0:0:0:0:1 - - [09/Sep/2018:23:40:36 +0800] "GET /rdf4j-workbench/transformations/table.xsl HTTP/1.1" 304 -
0:0:0:0:0:0:0:1 - - [09/Sep/2018:23:40:36 +0800] "GET /rdf4j-workbench/transformations/url-encode.xsl HTTP/1.1" 304 -
0:0:0:0:0:0:0:1 - - [09/Sep/2018:23:40:36 +0800] "GET /rdf4j-workbench/repositories/NONE/info HTTP/1.1" 200 5671
0:0:0:0:0:0:0:1 - - [09/Sep/2018:23:40:36 +0800] "GET /rdf4j-workbench/images/affirmative.png HTTP/1.1" 304 -
0:0:0:0:0:0:0:1 - - [09/Sep/2018:23:40:36 +0800] "GET /rdf4j-workbench/images/view.png HTTP/1.1" 304 -
0:0:0:0:0:0:0:1 - - [09/Sep/2018:23:40:36 +0800] "GET /rdf4j-workbench/images/edit.png HTTP/1.1" 304 -
127.0.0.1 - - [09/Sep/2018:23:40:39 +0800] "GET /rdf4j-server/repositories HTTP/1.1" 200 301
0:0:0:0:0:0:0:1 - - [09/Sep/2018:23:40:39 +0800] "GET /rdf4j-workbench/repositories/NONE/delete HTTP/1.1" 200 1031
0:0:0:0:0:0:0:1 - - [09/Sep/2018:23:40:39 +0800] "GET /rdf4j-workbench/transformations/delete.xsl HTTP/1.1" 200 1572
0:0:0:0:0:0:0:1 - - [09/Sep/2018:23:40:39 +0800] "GET /rdf4j-workbench/repositories/NONE/info HTTP/1.1" 200 5671
0:0:0:0:0:0:0:1 - - [09/Sep/2018:23:40:39 +0800] "GET /rdf4j-workbench/scripts/delete.js HTTP/1.1" 200 1754
0:0:0:0:0:0:0:1 - - [09/Sep/2018:23:40:45 +0800] "GET /rdf4j-workbench/repositories/NONE/create HTTP/1.1" 200 321
0:0:0:0:0:0:0:1 - - [09/Sep/2018:23:40:45 +0800] "GET /rdf4j-workbench/transformations/create.xsl HTTP/1.1" 304 -
0:0:0:0:0:0:0:1 - - [09/Sep/2018:23:40:45 +0800] "GET /rdf4j-workbench/repositories/NONE/info HTTP/1.1" 200 5671
127.0.0.1 - - [09/Sep/2018:23:40:50 +0800] "GET /rdf4j-server/repositories HTTP/1.1" 200 301
0:0:0:0:0:0:0:1 - - [09/Sep/2018:23:40:50 +0800] "GET /rdf4j-workbench/repositories/NONE/delete HTTP/1.1" 200 1031
0:0:0:0:0:0:0:1 - - [09/Sep/2018:23:40:50 +0800] "GET /rdf4j-workbench/repositories/NONE/info HTTP/1.1" 200 5671
127.0.0.1 - - [09/Sep/2018:23:40:53 +0800] "GET /rdf4j-server/repositories HTTP/1.1" 200 301
127.0.0.1 - - [09/Sep/2018:23:40:53 +0800] "GET /rdf4j-server/repositories/SYSTEM/statements?infer=true HTTP/1.1" 200 2935
0:0:0:0:0:0:0:1 - - [09/Sep/2018:23:40:54 +0800] "GET /rdf4j-workbench/repositories/NONE/delete?checkSafe=reference HTTP/1.1" 200 23
127.0.0.1 - - [09/Sep/2018:23:40:54 +0800] "GET /rdf4j-server/repositories HTTP/1.1" 200 301
127.0.0.1 - - [09/Sep/2018:23:40:54 +0800] "GET /rdf4j-server/repositories HTTP/1.1" 200 301
127.0.0.1 - - [09/Sep/2018:23:40:54 +0800] "GET /rdf4j-server/repositories/SYSTEM/statements?infer=true HTTP/1.1" 200 2935
0:0:0:0:0:0:0:1 - - [09/Sep/2018:23:40:54 +0800] "GET /rdf4j-workbench/repositories/NONE/delete?checkSafe=reference HTTP/1.1" 200 23
127.0.0.1 - - [09/Sep/2018:23:40:56 +0800] "DELETE /rdf4j-server/repositories/reference HTTP/1.1" 204 -
127.0.0.1 - - [09/Sep/2018:23:40:56 +0800] "GET /rdf4j-server/repositories HTTP/1.1" 200 70
0:0:0:0:0:0:0:1 - - [09/Sep/2018:23:40:56 +0800] "POST /rdf4j-workbench/repositories/NONE/delete HTTP/1.1" 302 -
0:0:0:0:0:0:0:1 - - [09/Sep/2018:23:40:56 +0800] "POST /rdf4j-workbench/repositories/NONE/delete HTTP/1.1" 302 -
0:0:0:0:0:0:0:1 - - [09/Sep/2018:23:40:56 +0800] "GET /rdf4j-workbench/repositories/ HTTP/1.1" 302 -
127.0.0.1 - - [09/Sep/2018:23:40:56 +0800] "GET /rdf4j-server/repositories HTTP/1.1" 200 70
0:0:0:0:0:0:0:1 - - [09/Sep/2018:23:40:56 +0800] "GET /rdf4j-workbench/repositories/NONE/repositories HTTP/1.1" 200 480
0:0:0:0:0:0:0:1 - - [09/Sep/2018:23:40:56 +0800] "GET /rdf4j-workbench/repositories/NONE/info HTTP/1.1" 200 5671
0:0:0:0:0:0:0:1 - - [09/Sep/2018:23:40:58 +0800] "GET /rdf4j-workbench/repositories/NONE/create HTTP/1.1" 200 321
0:0:0:0:0:0:0:1 - - [09/Sep/2018:23:40:58 +0800] "GET /rdf4j-workbench/repositories/NONE/info HTTP/1.1" 200 5671
0:0:0:0:0:0:0:1 - - [09/Sep/2018:23:42:26 +0800] "GET /rdf4j-workbench/repositories/NONE/create?type=memory&id=re&title=&next=Next HTTP/1.1" 200 328
0:0:0:0:0:0:0:1 - - [09/Sep/2018:23:42:26 +0800] "GET /rdf4j-workbench/transformations/create-memory.xsl HTTP/1.1" 304 -
0:0:0:0:0:0:0:1 - - [09/Sep/2018:23:42:26 +0800] "GET /rdf4j-workbench/repositories/NONE/info HTTP/1.1" 200 5671
0:0:0:0:0:0:0:1 - - [09/Sep/2018:23:42:27 +0800] "GET /rdf4j-workbench/scripts/create.js HTTP/1.1" 304 -
127.0.0.1 - - [09/Sep/2018:23:43:26 +0800] "GET /rdf4j-server/repositories HTTP/1.1" 200 70
0:0:0:0:0:0:0:1 - - [09/Sep/2018:23:43:26 +0800] "GET /rdf4j-workbench/repositories/reference/info HTTP/1.1" 500 3191
127.0.0.1 - - [09/Sep/2018:23:43:26 +0800] "GET /rdf4j-server/repositories HTTP/1.1" 200 70
127.0.0.1 - - [09/Sep/2018:23:43:26 +0800] "POST /rdf4j-server/repositories/SYSTEM/statements?context=%3Chttp%3A%2F%2Flocalhost%3A8000%2Frdf4j-server%2Frepositories%2Freference%23reference%3E&baseURI=%3Chttp%3A%2F%2Flocalhost%3A8000%2Frdf4j-server%2Frepositories%2Freference%3E&preserveNodeId=true HTTP/1.1" 204 -
0:0:0:0:0:0:0:1 - - [09/Sep/2018:23:43:26 +0800] "POST /rdf4j-workbench/repositories/NONE/create HTTP/1.1" 302 -
127.0.0.1 - - [09/Sep/2018:23:43:26 +0800] "GET /rdf4j-server/repositories/reference/size HTTP/1.1" 200 1
127.0.0.1 - - [09/Sep/2018:23:43:26 +0800] "GET /rdf4j-server/repositories/reference/contexts HTTP/1.1" 200 37
0:0:0:0:0:0:0:1 - - [09/Sep/2018:23:43:26 +0800] "GET /rdf4j-workbench/repositories/reference/summary HTTP/1.1" 200 1043
127.0.0.1 - - [09/Sep/2018:23:43:26 +0800] "GET /rdf4j-server/repositories HTTP/1.1" 200 313
0:0:0:0:0:0:0:1 - - [09/Sep/2018:23:43:26 +0800] "GET /rdf4j-workbench/repositories/reference/info HTTP/1.1" 200 5948
0:0:0:0:0:0:0:1 - - [09/Sep/2018:23:43:35 +0800] "GET /rdf4j-workbench/repositories/reference/create HTTP/1.1" 200 321
127.0.0.1 - - [09/Sep/2018:23:43:35 +0800] "GET /rdf4j-server/repositories HTTP/1.1" 200 313
0:0:0:0:0:0:0:1 - - [09/Sep/2018:23:43:35 +0800] "GET /rdf4j-workbench/repositories/reference/info HTTP/1.1" 200 5948
127.0.0.1 - - [09/Sep/2018:23:43:37 +0800] "GET /rdf4j-server/repositories HTTP/1.1" 200 313
0:0:0:0:0:0:0:1 - - [09/Sep/2018:23:43:37 +0800] "GET /rdf4j-workbench/repositories/reference/delete HTTP/1.1" 200 1043
127.0.0.1 - - [09/Sep/2018:23:43:37 +0800] "GET /rdf4j-server/repositories HTTP/1.1" 200 313
0:0:0:0:0:0:0:1 - - [09/Sep/2018:23:43:37 +0800] "GET /rdf4j-workbench/repositories/reference/info HTTP/1.1" 200 5948
127.0.0.1 - - [09/Sep/2018:23:43:40 +0800] "GET /rdf4j-server/repositories/reference/contexts HTTP/1.1" 200 37
127.0.0.1 - - [09/Sep/2018:23:43:40 +0800] "GET /rdf4j-server/repositories/reference/size HTTP/1.1" 200 1
0:0:0:0:0:0:0:1 - - [09/Sep/2018:23:43:40 +0800] "GET /rdf4j-workbench/repositories/reference/summary HTTP/1.1" 200 1043
127.0.0.1 - - [09/Sep/2018:23:43:40 +0800] "GET /rdf4j-server/repositories HTTP/1.1" 200 313
0:0:0:0:0:0:0:1 - - [09/Sep/2018:23:43:40 +0800] "GET /rdf4j-workbench/repositories/reference/info HTTP/1.1" 200 5948
127.0.0.1 - - [09/Sep/2018:23:43:44 +0800] "GET /rdf4j-server/repositories/reference/namespaces HTTP/1.1" 200 47
0:0:0:0:0:0:0:1 - - [09/Sep/2018:23:43:44 +0800] "GET /rdf4j-workbench/repositories/reference/namespaces HTTP/1.1" 200 386
0:0:0:0:0:0:0:1 - - [09/Sep/2018:23:43:44 +0800] "GET /rdf4j-workbench/transformations/namespaces.xsl HTTP/1.1" 304 -
127.0.0.1 - - [09/Sep/2018:23:43:44 +0800] "GET /rdf4j-server/repositories HTTP/1.1" 200 313
0:0:0:0:0:0:0:1 - - [09/Sep/2018:23:43:44 +0800] "GET /rdf4j-workbench/repositories/reference/info HTTP/1.1" 200 5948
0:0:0:0:0:0:0:1 - - [09/Sep/2018:23:43:44 +0800] "GET /rdf4j-workbench/scripts/namespaces.js HTTP/1.1" 304 -
127.0.0.1 - - [09/Sep/2018:23:43:44 +0800] "GET /rdf4j-server/repositories/reference/namespaces HTTP/1.1" 200 47
127.0.0.1 - - [09/Sep/2018:23:43:44 +0800] "GET /rdf4j-server/repositories/reference/contexts HTTP/1.1" 200 37
0:0:0:0:0:0:0:1 - - [09/Sep/2018:23:43:44 +0800] "GET /rdf4j-workbench/repositories/reference/contexts HTTP/1.1" 200 353
0:0:0:0:0:0:0:1 - - [09/Sep/2018:23:43:44 +0800] "GET /rdf4j-workbench/transformations/contexts.xsl HTTP/1.1" 304 -
127.0.0.1 - - [09/Sep/2018:23:43:44 +0800] "GET /rdf4j-server/repositories HTTP/1.1" 200 313
0:0:0:0:0:0:0:1 - - [09/Sep/2018:23:43:44 +0800] "GET /rdf4j-workbench/repositories/reference/info HTTP/1.1" 200 5948
127.0.0.1 - - [09/Sep/2018:23:43:46 +0800] "GET /rdf4j-server/repositories/reference/namespaces HTTP/1.1" 200 47
127.0.0.1 - - [09/Sep/2018:23:43:46 +0800] "POST /rdf4j-server/repositories/reference HTTP/1.1" 200 32
0:0:0:0:0:0:0:1 - - [09/Sep/2018:23:43:46 +0800] "GET /rdf4j-workbench/repositories/reference/types HTTP/1.1" 200 347
0:0:0:0:0:0:0:1 - - [09/Sep/2018:23:43:46 +0800] "GET /rdf4j-workbench/transformations/types.xsl HTTP/1.1" 304 -
127.0.0.1 - - [09/Sep/2018:23:43:46 +0800] "GET /rdf4j-server/repositories HTTP/1.1" 200 313
0:0:0:0:0:0:0:1 - - [09/Sep/2018:23:43:46 +0800] "GET /rdf4j-workbench/repositories/reference/info HTTP/1.1" 200 5948
127.0.0.1 - - [09/Sep/2018:23:43:47 +0800] "GET /rdf4j-server/repositories/reference/namespaces HTTP/1.1" 200 47
127.0.0.1 - - [09/Sep/2018:23:43:47 +0800] "GET /rdf4j-server/repositories/reference/contexts HTTP/1.1" 200 37
0:0:0:0:0:0:0:1 - - [09/Sep/2018:23:43:47 +0800] "GET /rdf4j-workbench/repositories/reference/contexts HTTP/1.1" 200 353
127.0.0.1 - - [09/Sep/2018:23:43:47 +0800] "GET /rdf4j-server/repositories HTTP/1.1" 200 313
0:0:0:0:0:0:0:1 - - [09/Sep/2018:23:43:47 +0800] "GET /rdf4j-workbench/repositories/reference/info HTTP/1.1" 200 5948
127.0.0.1 - - [09/Sep/2018:23:43:48 +0800] "GET /rdf4j-server/repositories/reference/namespaces HTTP/1.1" 200 47
0:0:0:0:0:0:0:1 - - [09/Sep/2018:23:43:48 +0800] "GET /rdf4j-workbench/repositories/reference/namespaces HTTP/1.1" 200 386
127.0.0.1 - - [09/Sep/2018:23:43:48 +0800] "GET /rdf4j-server/repositories HTTP/1.1" 200 313
0:0:0:0:0:0:0:1 - - [09/Sep/2018:23:43:48 +0800] "GET /rdf4j-workbench/repositories/reference/info HTTP/1.1" 200 5948
127.0.0.1 - - [09/Sep/2018:23:43:50 +0800] "GET /rdf4j-server/repositories/reference/size HTTP/1.1" 200 1
127.0.0.1 - - [09/Sep/2018:23:43:50 +0800] "GET /rdf4j-server/repositories/reference/contexts HTTP/1.1" 200 37
0:0:0:0:0:0:0:1 - - [09/Sep/2018:23:43:50 +0800] "GET /rdf4j-workbench/repositories/reference/summary HTTP/1.1" 200 1043
127.0.0.1 - - [09/Sep/2018:23:43:50 +0800] "GET /rdf4j-server/repositories HTTP/1.1" 200 313
0:0:0:0:0:0:0:1 - - [09/Sep/2018:23:43:51 +0800] "GET /rdf4j-workbench/repositories/reference/info HTTP/1.1" 200 5948
127.0.0.1 - - [09/Sep/2018:23:43:52 +0800] "GET /rdf4j-server/repositories/reference/namespaces HTTP/1.1" 200 47
0:0:0:0:0:0:0:1 - - [09/Sep/2018:23:43:52 +0800] "GET /rdf4j-workbench/repositories/reference/namespaces HTTP/1.1" 200 386
127.0.0.1 - - [09/Sep/2018:23:43:52 +0800] "GET /rdf4j-server/repositories HTTP/1.1" 200 313
0:0:0:0:0:0:0:1 - - [09/Sep/2018:23:43:52 +0800] "GET /rdf4j-workbench/repositories/reference/info HTTP/1.1" 200 5948
0:0:0:0:0:0:0:1 - - [09/Sep/2018:23:47:04 +0800] "GET /rdf4j-workbench/repositories/reference/add HTTP/1.1" 200 318
0:0:0:0:0:0:0:1 - - [09/Sep/2018:23:47:04 +0800] "GET /rdf4j-workbench/transformations/add.xsl HTTP/1.1" 304 -
127.0.0.1 - - [09/Sep/2018:23:47:04 +0800] "GET /rdf4j-server/repositories HTTP/1.1" 200 313
0:0:0:0:0:0:0:1 - - [09/Sep/2018:23:47:04 +0800] "GET /rdf4j-workbench/repositories/reference/info HTTP/1.1" 200 5948
0:0:0:0:0:0:0:1 - - [09/Sep/2018:23:47:04 +0800] "GET /rdf4j-workbench/scripts/add.js HTTP/1.1" 304 -
0:0:0:0:0:0:0:1 - - [09/Sep/2018:23:47:05 +0800] "GET /rdf4j-workbench/repositories/reference/update HTTP/1.1" 200 350
0:0:0:0:0:0:0:1 - - [09/Sep/2018:23:47:05 +0800] "GET /rdf4j-workbench/transformations/update.xsl HTTP/1.1" 200 2048
127.0.0.1 - - [09/Sep/2018:23:47:05 +0800] "GET /rdf4j-server/repositories HTTP/1.1" 200 313
0:0:0:0:0:0:0:1 - - [09/Sep/2018:23:47:05 +0800] "GET /rdf4j-workbench/repositories/reference/info HTTP/1.1" 200 5948
127.0.0.1 - - [09/Sep/2018:23:47:05 +0800] "GET /rdf4j-server/repositories/reference/namespaces HTTP/1.1" 200 47
0:0:0:0:0:0:0:1 - - [09/Sep/2018:23:47:05 +0800] "GET /rdf4j-workbench/repositories/reference/namespaces HTTP/1.1" 200 386
0:0:0:0:0:0:0:1 - - [09/Sep/2018:23:47:05 +0800] "GET /rdf4j-workbench/scripts/codemirror.4.5.0.min.js HTTP/1.1" 304 -
0:0:0:0:0:0:0:1 - - [09/Sep/2018:23:47:05 +0800] "GET /rdf4j-workbench/scripts/yasqe.min.js HTTP/1.1" 304 -
0:0:0:0:0:0:0:1 - - [09/Sep/2018:23:47:05 +0800] "GET /rdf4j-workbench/scripts/yasqeHelper.js HTTP/1.1" 304 -
0:0:0:0:0:0:0:1 - - [09/Sep/2018:23:47:05 +0800] "GET /rdf4j-workbench/scripts/update.js HTTP/1.1" 200 2833
0:0:0:0:0:0:0:1 - - [09/Sep/2018:23:47:06 +0800] "GET /rdf4j-workbench/repositories/reference/add HTTP/1.1" 200 318
127.0.0.1 - - [09/Sep/2018:23:47:06 +0800] "GET /rdf4j-server/repositories HTTP/1.1" 200 313
0:0:0:0:0:0:0:1 - - [09/Sep/2018:23:47:06 +0800] "GET /rdf4j-workbench/repositories/reference/info HTTP/1.1" 200 5948
0:0:0:0:0:0:0:1 - - [09/Sep/2018:23:47:09 +0800] "GET /rdf4j-workbench/repositories/reference/add HTTP/1.1" 200 318
127.0.0.1 - - [09/Sep/2018:23:47:09 +0800] "GET /rdf4j-server/repositories HTTP/1.1" 200 313
0:0:0:0:0:0:0:1 - - [09/Sep/2018:23:47:09 +0800] "GET /rdf4j-workbench/repositories/reference/info HTTP/1.1" 200 5948
127.0.0.1 - - [09/Sep/2018:23:48:45 +0800] "POST /rdf4j-server/repositories/reference/statements?context=%3Cfile%3A%2F%2FC%3A%2Ffakepath%2FTopology.ttl%3E&baseURI=%3Cfile%3A%2F%2FC%3A%2Ffakepath%2FTopology.ttl%3E HTTP/1.1" 400 64
0:0:0:0:0:0:0:1 - - [09/Sep/2018:23:48:45 +0800] "POST /rdf4j-workbench/repositories/reference/add HTTP/1.1" 200 889
127.0.0.1 - - [09/Sep/2018:23:48:45 +0800] "GET /rdf4j-server/repositories HTTP/1.1" 200 313
0:0:0:0:0:0:0:1 - - [09/Sep/2018:23:48:45 +0800] "GET /rdf4j-workbench/repositories/reference/info HTTP/1.1" 200 5948
127.0.0.1 - - [09/Sep/2018:23:53:51 +0800] "POST /rdf4j-server/repositories/reference/statements?context=%3Cfile%3A%2F%2FC%3A%2Ffakepath%2FTopology.ttl%3E&baseURI=%3Cfile%3A%2F%2FC%3A%2Ffakepath%2FTopology.ttl%3E HTTP/1.1" 204 -
0:0:0:0:0:0:0:1 - - [09/Sep/2018:23:53:51 +0800] "POST /rdf4j-workbench/repositories/reference/add HTTP/1.1" 302 -
127.0.0.1 - - [09/Sep/2018:23:53:51 +0800] "GET /rdf4j-server/repositories/reference/size HTTP/1.1" 200 1
127.0.0.1 - - [09/Sep/2018:23:53:51 +0800] "GET /rdf4j-server/repositories/reference/contexts HTTP/1.1" 200 37
0:0:0:0:0:0:0:1 - - [09/Sep/2018:23:53:51 +0800] "GET /rdf4j-workbench/repositories/reference/summary HTTP/1.1" 200 1043
0:0:0:0:0:0:0:1 - - [09/Sep/2018:23:53:51 +0800] "GET /rdf4j-workbench/transformations/summary.xsl HTTP/1.1" 304 -
0:0:0:0:0:0:0:1 - - [09/Sep/2018:23:53:51 +0800] "GET /rdf4j-workbench/locale/messages.xsl HTTP/1.1" 304 -
0:0:0:0:0:0:0:1 - - [09/Sep/2018:23:53:51 +0800] "GET /rdf4j-workbench/transformations/template.xsl HTTP/1.1" 304 -
127.0.0.1 - - [09/Sep/2018:23:53:51 +0800] "GET /rdf4j-server/repositories HTTP/1.1" 200 313
0:0:0:0:0:0:0:1 - - [09/Sep/2018:23:53:51 +0800] "GET /rdf4j-workbench/repositories/reference/info HTTP/1.1" 200 5948
0:0:0:0:0:0:0:1 - - [09/Sep/2018:23:53:52 +0800] "GET /rdf4j-workbench/styles/default/print.css HTTP/1.1" 304 -
0:0:0:0:0:0:0:1 - - [09/Sep/2018:23:53:52 +0800] "GET /rdf4j-workbench/images/logo.png HTTP/1.1" 304 -
0:0:0:0:0:0:0:1 - - [09/Sep/2018:23:53:52 +0800] "GET /rdf4j-workbench/images/product.png HTTP/1.1" 304 -
0:0:0:0:0:0:0:1 - - [09/Sep/2018:23:53:52 +0800] "GET /rdf4j-workbench/scripts/jquery-1.11.0.min.js HTTP/1.1" 304 -
0:0:0:0:0:0:0:1 - - [09/Sep/2018:23:53:52 +0800] "GET /rdf4j-workbench/styles/w3-html40-recommended.css HTTP/1.1" 304 -
0:0:0:0:0:0:0:1 - - [09/Sep/2018:23:53:52 +0800] "GET /rdf4j-workbench/styles/basic/all.css HTTP/1.1" 304 -
0:0:0:0:0:0:0:1 - - [09/Sep/2018:23:53:52 +0800] "GET /rdf4j-workbench/scripts/template.js HTTP/1.1" 304 -
0:0:0:0:0:0:0:1 - - [09/Sep/2018:23:53:52 +0800] "GET /rdf4j-workbench/styles/yasqe.min.css HTTP/1.1" 304 -
0:0:0:0:0:0:0:1 - - [09/Sep/2018:23:53:52 +0800] "GET /rdf4j-workbench/styles/default/screen.css HTTP/1.1" 304 -
0:0:0:0:0:0:0:1 - - [09/Sep/2018:23:53:52 +0800] "GET /rdf4j-workbench/styles/default/images/hr_menu.png HTTP/1.1" 304 -
127.0.0.1 - - [09/Sep/2018:23:53:57 +0800] "GET /rdf4j-server/repositories/reference/namespaces HTTP/1.1" 200 47
0:0:0:0:0:0:0:1 - - [09/Sep/2018:23:53:57 +0800] "GET /rdf4j-workbench/repositories/reference/explore HTTP/1.1" 200 443
0:0:0:0:0:0:0:1 - - [09/Sep/2018:23:53:57 +0800] "GET /rdf4j-workbench/transformations/explore.xsl HTTP/1.1" 304 -
0:0:0:0:0:0:0:1 - - [09/Sep/2018:23:53:57 +0800] "GET /rdf4j-workbench/transformations/table.xsl HTTP/1.1" 304 -
0:0:0:0:0:0:0:1 - - [09/Sep/2018:23:53:57 +0800] "GET /rdf4j-workbench/transformations/url-encode.xsl HTTP/1.1" 304 -
127.0.0.1 - - [09/Sep/2018:23:53:57 +0800] "GET /rdf4j-server/repositories HTTP/1.1" 200 313
0:0:0:0:0:0:0:1 - - [09/Sep/2018:23:53:57 +0800] "GET /rdf4j-workbench/repositories/reference/info HTTP/1.1" 200 5948
0:0:0:0:0:0:0:1 - - [09/Sep/2018:23:53:57 +0800] "GET /rdf4j-workbench/scripts/paging.js HTTP/1.1" 304 -
0:0:0:0:0:0:0:1 - - [09/Sep/2018:23:53:57 +0800] "GET /rdf4j-workbench/scripts/explore.js HTTP/1.1" 304 -
127.0.0.1 - - [09/Sep/2018:23:53:58 +0800] "GET /rdf4j-server/repositories/reference/namespaces HTTP/1.1" 200 47
127.0.0.1 - - [09/Sep/2018:23:53:58 +0800] "POST /rdf4j-server/repositories/reference HTTP/1.1" 200 32
0:0:0:0:0:0:0:1 - - [09/Sep/2018:23:53:58 +0800] "GET /rdf4j-workbench/repositories/reference/types HTTP/1.1" 200 347
0:0:0:0:0:0:0:1 - - [09/Sep/2018:23:53:58 +0800] "GET /rdf4j-workbench/transformations/types.xsl HTTP/1.1" 304 -
127.0.0.1 - - [09/Sep/2018:23:53:58 +0800] "GET /rdf4j-server/repositories HTTP/1.1" 200 313
0:0:0:0:0:0:0:1 - - [09/Sep/2018:23:53:58 +0800] "GET /rdf4j-workbench/repositories/reference/info HTTP/1.1" 200 5948
127.0.0.1 - - [09/Sep/2018:23:54:00 +0800] "GET /rdf4j-server/repositories/reference/namespaces HTTP/1.1" 200 47
127.0.0.1 - - [09/Sep/2018:23:54:00 +0800] "GET /rdf4j-server/repositories/reference/contexts HTTP/1.1" 200 37
0:0:0:0:0:0:0:1 - - [09/Sep/2018:23:54:00 +0800] "GET /rdf4j-workbench/repositories/reference/contexts HTTP/1.1" 200 353
0:0:0:0:0:0:0:1 - - [09/Sep/2018:23:54:00 +0800] "GET /rdf4j-workbench/transformations/contexts.xsl HTTP/1.1" 304 -
127.0.0.1 - - [09/Sep/2018:23:54:00 +0800] "GET /rdf4j-server/repositories HTTP/1.1" 200 313
0:0:0:0:0:0:0:1 - - [09/Sep/2018:23:54:00 +0800] "GET /rdf4j-workbench/repositories/reference/info HTTP/1.1" 200 5948
127.0.0.1 - - [09/Sep/2018:23:54:01 +0800] "GET /rdf4j-server/repositories/reference/namespaces HTTP/1.1" 200 47
0:0:0:0:0:0:0:1 - - [09/Sep/2018:23:54:01 +0800] "GET /rdf4j-workbench/repositories/reference/namespaces HTTP/1.1" 200 386
0:0:0:0:0:0:0:1 - - [09/Sep/2018:23:54:01 +0800] "GET /rdf4j-workbench/transformations/namespaces.xsl HTTP/1.1" 304 -
127.0.0.1 - - [09/Sep/2018:23:54:01 +0800] "GET /rdf4j-server/repositories HTTP/1.1" 200 313
0:0:0:0:0:0:0:1 - - [09/Sep/2018:23:54:01 +0800] "GET /rdf4j-workbench/repositories/reference/info HTTP/1.1" 200 5948
0:0:0:0:0:0:0:1 - - [09/Sep/2018:23:54:01 +0800] "GET /rdf4j-workbench/scripts/namespaces.js HTTP/1.1" 304 -
0:0:0:0:0:0:0:1 - - [09/Sep/2018:23:54:04 +0800] "GET /rdf4j-workbench/repositories/reference/add HTTP/1.1" 200 318
127.0.0.1 - - [09/Sep/2018:23:54:04 +0800] "GET /rdf4j-server/repositories HTTP/1.1" 200 313
0:0:0:0:0:0:0:1 - - [09/Sep/2018:23:54:04 +0800] "GET /rdf4j-workbench/repositories/reference/info HTTP/1.1" 200 5948
127.0.0.1 - - [09/Sep/2018:23:54:11 +0800] "POST /rdf4j-server/repositories/reference/statements?context=%3Cfile%3A%2F%2FC%3A%2Ffakepath%2FTopology.ttl%3E&baseURI=%3Cfile%3A%2F%2FC%3A%2Ffakepath%2FTopology.ttl%3E HTTP/1.1" 400 64
0:0:0:0:0:0:0:1 - - [09/Sep/2018:23:54:11 +0800] "POST /rdf4j-workbench/repositories/reference/add HTTP/1.1" 200 890
127.0.0.1 - - [09/Sep/2018:23:54:11 +0800] "GET /rdf4j-server/repositories HTTP/1.1" 200 313
0:0:0:0:0:0:0:1 - - [09/Sep/2018:23:54:11 +0800] "GET /rdf4j-workbench/repositories/reference/info HTTP/1.1" 200 5948
127.0.0.1 - - [09/Sep/2018:23:54:51 +0800] "POST /rdf4j-server/repositories/reference/statements?context=%3Cfile%3A%2F%2FC%3A%2Ffakepath%2Fontology%2520%282%29.n3%3E&baseURI=%3Cfile%3A%2F%2FC%3A%2Ffakepath%2Fontology%2520%282%29.n3%3E HTTP/1.1" 204 -
0:0:0:0:0:0:0:1 - - [09/Sep/2018:23:54:51 +0800] "POST /rdf4j-workbench/repositories/reference/add HTTP/1.1" 302 -
127.0.0.1 - - [09/Sep/2018:23:54:51 +0800] "GET /rdf4j-server/repositories/reference/size HTTP/1.1" 200 3
127.0.0.1 - - [09/Sep/2018:23:54:51 +0800] "GET /rdf4j-server/repositories/reference/contexts HTTP/1.1" 200 91
0:0:0:0:0:0:0:1 - - [09/Sep/2018:23:54:51 +0800] "GET /rdf4j-workbench/repositories/reference/summary HTTP/1.1" 200 1045
127.0.0.1 - - [09/Sep/2018:23:54:51 +0800] "GET /rdf4j-server/repositories HTTP/1.1" 200 313
0:0:0:0:0:0:0:1 - - [09/Sep/2018:23:54:51 +0800] "GET /rdf4j-workbench/repositories/reference/info HTTP/1.1" 200 5948
127.0.0.1 - - [09/Sep/2018:23:54:58 +0800] "GET /rdf4j-server/repositories/reference/namespaces HTTP/1.1" 200 47
0:0:0:0:0:0:0:1 - - [09/Sep/2018:23:54:58 +0800] "GET /rdf4j-workbench/repositories/reference/namespaces HTTP/1.1" 200 386
127.0.0.1 - - [09/Sep/2018:23:54:58 +0800] "GET /rdf4j-server/repositories HTTP/1.1" 200 313
0:0:0:0:0:0:0:1 - - [09/Sep/2018:23:54:58 +0800] "GET /rdf4j-workbench/repositories/reference/info HTTP/1.1" 200 5948
127.0.0.1 - - [09/Sep/2018:23:54:58 +0800] "GET /rdf4j-server/repositories/reference/namespaces HTTP/1.1" 200 47
127.0.0.1 - - [09/Sep/2018:23:54:58 +0800] "GET /rdf4j-server/repositories/reference/contexts HTTP/1.1" 200 91
0:0:0:0:0:0:0:1 - - [09/Sep/2018:23:54:58 +0800] "GET /rdf4j-workbench/repositories/reference/contexts HTTP/1.1" 200 475
127.0.0.1 - - [09/Sep/2018:23:54:58 +0800] "GET /rdf4j-server/repositories HTTP/1.1" 200 313
0:0:0:0:0:0:0:1 - - [09/Sep/2018:23:54:59 +0800] "GET /rdf4j-workbench/repositories/reference/info HTTP/1.1" 200 5948
0:0:0:0:0:0:0:1 - - [09/Sep/2018:23:54:59 +0800] "GET /rdf4j-workbench/images/external.png HTTP/1.1" 200 177
127.0.0.1 - - [09/Sep/2018:23:55:03 +0800] "GET /rdf4j-server/repositories/reference/namespaces HTTP/1.1" 200 47
127.0.0.1 - - [09/Sep/2018:23:55:03 +0800] "GET /rdf4j-server/repositories/reference/statements?subj=%3Cfile%3A%2F%2FC%3A%2Ffakepath%2Fontology%2520%282%29.n3%3E&infer=true HTTP/1.1" 200 19
127.0.0.1 - - [09/Sep/2018:23:55:03 +0800] "GET /rdf4j-server/repositories/reference/statements?pred=%3Cfile%3A%2F%2FC%3A%2Ffakepath%2Fontology%2520%282%29.n3%3E&infer=true HTTP/1.1" 200 19
127.0.0.1 - - [09/Sep/2018:23:55:03 +0800] "GET /rdf4j-server/repositories/reference/statements?obj=%3Cfile%3A%2F%2FC%3A%2Ffakepath%2Fontology%2520%282%29.n3%3E&infer=true HTTP/1.1" 200 19
127.0.0.1 - - [09/Sep/2018:23:55:03 +0800] "GET /rdf4j-server/repositories/reference/statements?context=%3Cfile%3A%2F%2FC%3A%2Ffakepath%2Fontology%2520%282%29.n3%3E&infer=true HTTP/1.1" 200 55369
127.0.0.1 - - [09/Sep/2018:23:55:03 +0800] "GET /rdf4j-server/repositories/reference/statements?subj=%3Cfile%3A%2F%2FC%3A%2Ffakepath%2Fontology%2520%282%29.n3%3E&infer=true HTTP/1.1" 200 19
127.0.0.1 - - [09/Sep/2018:23:55:03 +0800] "GET /rdf4j-server/repositories/reference/statements?pred=%3Cfile%3A%2F%2FC%3A%2Ffakepath%2Fontology%2520%282%29.n3%3E&infer=true HTTP/1.1" 200 19
127.0.0.1 - - [09/Sep/2018:23:55:03 +0800] "GET /rdf4j-server/repositories/reference/statements?obj=%3Cfile%3A%2F%2FC%3A%2Ffakepath%2Fontology%2520%282%29.n3%3E&infer=true HTTP/1.1" 200 19
127.0.0.1 - - [09/Sep/2018:23:55:03 +0800] "GET /rdf4j-server/repositories/reference/statements?context=%3Cfile%3A%2F%2FC%3A%2Ffakepath%2Fontology%2520%282%29.n3%3E&infer=true HTTP/1.1" 200 55369
0:0:0:0:0:0:0:1 - - [09/Sep/2018:23:55:03 +0800] "GET /rdf4j-workbench/repositories/reference/explore?resource=%3Cfile%3A%2F%2FC%3A%2Ffakepath%2Fontology%2520(2).n3%3E HTTP/1.1" 200 43637
127.0.0.1 - - [09/Sep/2018:23:55:03 +0800] "GET /rdf4j-server/repositories HTTP/1.1" 200 313
0:0:0:0:0:0:0:1 - - [09/Sep/2018:23:55:03 +0800] "GET /rdf4j-workbench/repositories/reference/info HTTP/1.1" 200 5948
